Log: Log file open, 03/22/15 13:01:20
Log: WinSock: version 1.1 (2.2), MaxSocks=32767, MaxUdp=65467
Log: Version: 8627
Log: Compiled (32-bit): Jan  7 2015 13:20:32
Log: Changelist: 102036
Log: Command line: 
Log: Base directory: E:\Steam\steamapps\common\BorderlandsPreSequel\Binaries\Win32\
[0000.75] Log: CPU Page size=4096, Processors=4
[0000.75] Log: High frequency timer resolution =3.020507 MHz
[0000.75] Log: Memory total: Physical=7.9GB (8GB approx) Pagefile=15.9GB Virtual=4.0GB
[0000.86] Log: STEAMWORKS initialized 1
[0000.87] Log: Presizing for 0 objects not considered by GC, pre-allocating 0 bytes.
[0000.87] Log: Presizing GObjAvailable to 262144 slots (~1048576 bytes)
[0000.87] Log: Object subsystem initialized
[0000.87] Log:   Steamworks-provided language string: russian
[0000.96] Log: OS stats:
[0000.96] Log: 	Windows 7 Service Pack 1
[0000.96] Log: 	RemoteDesktop=0
[0000.96] Log: Memory stats:
[0000.96] Log: 	Physical: 8130MB
[0000.96] Log: 	Virtual: 4095MB
[0000.96] Log: 	PageFile: 16258MB
[0000.96] Log: CPU stats:
[0000.96] Log: 	MeasuredPerformanceTime: 121.815 (stored result)
[0000.96] Log: 	Hyperthreaded: 1
[0000.96] Log: 	NumProcessorsPerCPU: 1
[0000.96] Log: 	NumLogicalProcessors: 4
[0000.96] Log: 	NumPhysicalProcessors: 8
[0000.96] Log: 	MaxSpeed: 3100
[0000.96] Log: 	CurrentSpeed: 3100
[0000.96] Log: 	CoresPerProcessor: 8
[0000.96] Log: 	IsOnBattery: 0
[0000.96] Log: 	BatteryLevel: -1
[0000.96] Log: 	Manufacturer: Intel
[0000.96] Log: 	CPUName: Unknown INTEL CPU
[0000.96] Log: 	L1CacheSize: -1
[0000.96] Log: 	L2CacheSize: -1
[0000.96] Log: 	Architecture: x86
[0000.96] Log: GPU stats:
[0000.96] Log: 	VendorID: 000010DE
[0000.96] Log: 	DeviceID: 00001086
[0000.96] Log: 	DriverVersion: 9.18.13.4788
[0000.96] Log: 	DeviceName: NVIDIA GeForce GTX 570 
[0000.96] Log: 	DriverName: nvd3dum.dll
[0000.96] Log: 	PixelShaderVersion: 3
[0000.96] Log: 	VertexShaderVersion: 3
[0000.96] Log: 	VRAMQuantity: 1280
[0000.96] Log: 	DedicatedVRAM: 1232
[0000.96] Log: 	AdapterCount: 1
[0000.96] Log: 	SupportsHardwareTnL: 1
[0000.96] Log: 	IsLowMemoryXPMachine: 0
[0000.96] Log: Machine  detected compatibility level: Composite: 5. CPU: 5. GPU: 5.
[0000.96] Log: Previous detected compatibility level: Composite: 5. CPU: 5. GPU: 5.
[0001.01] Log: Shader platform (RHI): PC-D3D-SM3
[0001.04] Log: PhysX GPU Support: DISABLED
[0001.05] Log: Initializing FaceFX...
[0001.05] Log: FaceFX 1.7.4 initialized.
[0005.16] Log: Finished loading startup packages in 3.91 seconds
[0005.18] Log: 159861 objects as part of root set at end of initial load.
[0005.18] Log: Initializing Engine...
[0005.21] Log: UEngine initialized
[0005.66] Log: AK Audio Device initialized.
[0005.71] Log: Client initialized
[0006.59] Log: Initializing Steamworks
[0008.59] Log: Primary PhysX scene will be in software.
[0008.59] Log: Creating Primary PhysX Scene.
[0008.60] Log: Bringing World menumap.TheWorld up for play (0) at 2015.03.22-13.01.28
[0008.69] Log: Bringing up level for play took: 0.108105
[0009.15] Log: Game engine initialized
[0009.22] Log: Initializing Engine Completed
[0011.36] Log: >>>>>>>>>>>>>> Initial startup: 11.36s <<<<<<<<<<<<<<<
[0043.89] Log: Primary PhysX scene will be in software.
[0043.89] Log: Creating Primary PhysX Scene.
[0043.90] Log: Bringing World ExampleEntry.TheWorld up for play (0) at 2015.03.22-13.02.03
[0043.90] Log: Bringing up level for play took: 0.014613
[0044.01] Log: Primary PhysX scene will be in software.
[0044.01] Log: Creating Primary PhysX Scene.
[0044.02] Log: Bringing World Loader.TheWorld up for play (0) at 2015.03.22-13.02.04
[0044.03] Log: Bringing up level for play took: 0.017623
[0054.77] Log: Primary PhysX scene will be in software.
[0054.77] Log: Creating Primary PhysX Scene.
[0054.78] Log: Bringing World menumap.TheWorld up for play (0) at 2015.03.22-13.02.14
[0054.80] Log: Bringing up level for play took: 0.140174
[0079.74] Log: Primary PhysX scene will be in software.
[0079.74] Log: Creating Primary PhysX Scene.
[0079.75] Lo