Log: Log file open, 12/23/14 04:42:45
Log: WinSock: version 1.1 (2.2), MaxSocks=32767, MaxUdp=65467
Log: Version: 8626
Log: Compiled (32-bit): Dec  5 2014 15:36:22
Log: Changelist: 99567
Log: Command line: 
Log: Base directory: E:\Steam\steamapps\common\BorderlandsPreSequel\Binaries\Win32\
[0000.73] Log: CPU Page size=4096, Processors=4
[0000.73] Log: High frequency timer resolution =3.020527 MHz
[0000.73] Log: Memory total: Physical=7.9GB (8GB approx) Pagefile=15.9GB Virtual=4.0GB
[0000.84] Log: STEAMWORKS initialized 1
[0000.84] Log: Presizing for 0 objects not considered by GC, pre-allocating 0 bytes.
[0000.84] Log: Presizing GObjAvailable to 262144 slots (~1048576 bytes)
[0000.84] Log: Object subsystem initialized
[0000.84] Log:   Steamworks-provided language string: russian
[0000.89] Log: OS stats:
[0000.89] Log: 	Windows 7 Service Pack 1
[0000.89] Log: 	RemoteDesktop=0
[0000.89] Log: Memory stats:
[0000.89] Log: 	Physical: 8130MB
[0000.89] Log: 	Virtual: 4095MB
[0000.89] Log: 	PageFile: 16258MB
[0000.89] Log: CPU stats:
[0000.89] Log: 	MeasuredPerformanceTime: 107.562 (stored result)
[0000.89] Log: 	Hyperthreaded: 1
[0000.89] Log: 	NumProcessorsPerCPU: 1
[0000.89] Log: 	NumLogicalProcessors: 4
[0000.89] Log: 	NumPhysicalProcessors: 8
[0000.89] Log: 	MaxSpeed: 3100
[0000.89] Log: 	CurrentSpeed: 3100
[0000.89] Log: 	CoresPerProcessor: 8
[0000.89] Log: 	IsOnBattery: 0
[0000.89] Log: 	BatteryLevel: -1
[0000.89] Log: 	Manufacturer: Intel
[0000.89] Log: 	CPUName: Unknown INTEL CPU
[0000.89] Log: 	L1CacheSize: -1
[0000.89] Log: 	L2CacheSize: -1
[0000.89] Log: 	Architecture: x86
[0000.89] Log: GPU stats:
[0000.89] Log: 	VendorID: 000010DE
[0000.89] Log: 	DeviceID: 00001086
[0000.89] Log: 	DriverVersion: 9.18.13.4475
[0000.89] Log: 	DeviceName: NVIDIA GeForce GTX 570 
[0000.89] Log: 	DriverName: nvd3dum.dll
[0000.89] Log: 	PixelShaderVersion: 3
[0000.89] Log: 	VertexShaderVersion: 3
[0000.89] Log: 	VRAMQuantity: 1280
[0000.89] Log: 	DedicatedVRAM: 1232
[0000.89] Log: 	AdapterCount: 1
[0000.89] Log: 	SupportsHardwareTnL: 1
[0000.89] Log: 	IsLowMemoryXPMachine: 0
[0000.89] Log: Machine  detected compatibility level: Composite: 5. CPU: 5. GPU: 5.
[0000.89] Log: Previous detected compatibility level: Composite: 5. CPU: 5. GPU: 5.
[0000.95] Log: Shader platform (RHI): PC-D3D-SM3
[0000.99] Log: PhysX GPU Support: DISABLED
[0001.00] Log: Initializing FaceFX...
[0001.00] Log: FaceFX 1.7.4 initialized.
[0004.90] Log: Finished loading startup packages in 3.85 seconds
[0004.93] Log: 159701 objects as part of root set at end of initial load.
[0004.93] Log: Initializing Engine...
[0004.95] Log: UEngine initialized
[0005.01] Log: AK Audio Device initialized.
[0005.06] Log: Client initialized
[0005.82] Log: Initializing Steamworks
[0006.48] Log: Primary PhysX scene will be in software.
[0006.48] Log: Creating Primary PhysX Scene.
[0006.49] Log: Bringing World menumap.TheWorld up for play (60) at 2014.12.23-04.42.51
[0006.51] Log: Bringing up level for play took: 0.034460
[0006.84] Log: Game engine initialized
[0006.85] Log: Initializing Engine Completed
[0019.76] Log: >>>>>>>>>>>>>> Initial startup: 19.76s <<<<<<<<<<<<<<<
[0038.83] Log: Primary PhysX scene will be in software.
[0038.83] Log: Creating Primary PhysX Scene.
[0038.83] Log: Bringing World ExampleEntry.TheWorld up for play (60) at 2014.12.23-04.43.23
[0038.83] Log: Bringing up level for play took: 0.012766
[0038.94] Log: Primary PhysX scene will be in software.
[0038.94] Log: Creating Primary PhysX Scene.
[0038.94] Log: Bringing World Loader.TheWorld up for play (60) at 2014.12.23-04.43.23
[0038.95] Log: Bringing up level for play took: 0.017174
[0056.48] Log: Primary PhysX scene will be in software.
[0056.48] Log: Creating Primary PhysX Scene.
[0875.14] Log: Primary PhysX scene will be in software.
[0875.14] Log: Creating Primary PhysX Scene.
[0875.15] Log: Bringing World menumap.TheWorld up for play (60) at 2014.12.23-04.57.20
[0875.17] Log: Bringing up level for play took: 0.171342
[0886.00] Log: Closing by request
[0886.09] Log: Preparing to exit.
[0886.64] Log: Game engine shut down
[0886.70] Log: Windows client shut down
[0886.71] Log: AK Audio shut down.
[0886.80] Log: Object subsystem successfully closed.
[0886.81] Log: Shutting down FaceFX...
[0886.81] Log: FaceFX shutdown.
[0886.83] Log: Exiting.
[0886.85] Log: Log file closed, 12/23/14 04:57:31
